%YAML 1.1
%TAG !u! tag:unity3d.com,2011:
--- !u!29 &1
OcclusionCullingSettings:
  m_ObjectHideFlags: 0
  serializedVersion: 2
  m_OcclusionBakeSettings:
    smallestOccluder: 5
    smallestHole: 0.25
    backfaceThreshold: 100
  m_SceneGUID: 00000000000000000000000000000000
  m_OcclusionCullingData: {fileID: 0}
--- !u!104 &2
RenderSettings:
  m_ObjectHideFlags: 0
  serializedVersion: 9
  m_Fog: 0
  m_FogColor: {r: 0.5, g: 0.5, b: 0.5, a: 1}
  m_FogMode: 3
  m_FogDensity: 0.01
  m_LinearFogStart: 0
  m_LinearFogEnd: 300
  m_AmbientSkyColor: {r: 0.212, g: 0.227, b: 0.259, a: 1}
  m_AmbientEquatorColor: {r: 0.114, g: 0.125, b: 0.133, a: 1}
  m_AmbientGroundColor: {r: 0.047, g: 0.043, b: 0.035, a: 1}
  m_AmbientIntensity: 1
  m_AmbientMode: 0
  m_SubtractiveShadowColor: {r: 0.42, g: 0.478, b: 0.627, a: 1}
  m_SkyboxMaterial: {fileID: 10304, guid: 0000000000000000f000000000000000, type: 0}
  m_HaloStrength: 0.5
  m_FlareStrength: 1
  m_FlareFadeSpeed: 3
  m_HaloTexture: {fileID: 0}
  m_SpotCookie: {fileID: 10001, guid: 0000000000000000e000000000000000, type: 0}
  m_DefaultReflectionMode: 0
  m_DefaultReflectionResolution: 128
  m_ReflectionBounces: 1
  m_ReflectionIntensity: 1
  m_CustomReflection: {fileID: 0}
  m_Sun: {fileID: 0}
  m_IndirectSpecularColor: {r: 0, g: 0, b: 0, a: 1}
  m_UseRadianceAmbientProbe: 0
--- !u!157 &3
LightmapSettings:
  m_ObjectHideFlags: 0
  serializedVersion: 12
  m_GIWorkflowMode: 0
  m_GISettings:
    serializedVersion: 2
    m_BounceScale: 1
    m_IndirectOutputScale: 1
    m_AlbedoBoost: 1
    m_EnvironmentLightingMode: 0
    m_EnableBakedLightmaps: 1
    m_EnableRealtimeLightmaps: 1
  m_LightmapEditorSettings:
    serializedVersion: 12
    m_Resolution: 2
    m_BakeResolution: 40
    m_AtlasSize: 1024
    m_AO: 0
    m_AOMaxDistance: 1
    m_CompAOExponent: 1
    m_CompAOExponentDirect: 0
    m_ExtractAmbientOcclusion: 0
    m_Padding: 2
    m_LightmapParameters: {fileID: 0}
    m_LightmapsBakeMode: 1
    m_TextureCompression: 1
    m_FinalGather: 0
    m_FinalGatherFiltering: 1
    m_FinalGatherRayCount: 256
    m_ReflectionCompression: 2
    m_MixedBakeMode: 1
    m_BakeBackend: 0
    m_PVRSampling: 1
    m_PVRDirectSampleCount: 32
    m_PVRSampleCount: 512
    m_PVRBounces: 2
    m_PVREnvironmentSampleCount: 512
    m_PVREnvironmentReferencePointCount: 2048
    m_PVRFilteringMode: 0
    m_PVRDenoiserTypeDirect: 0
    m_PVRDenoiserTypeIndirect: 0
    m_PVRDenoiserTypeAO: 0
    m_PVRFilterTypeDirect: 0
    m_PVRFilterTypeIndirect: 0
    m_PVRFilterTypeAO: 0
    m_PVREnvironmentMIS: 0
    m_PVRCulling: 1
    m_PVRFilteringGaussRadiusDirect: 1
    m_PVRFilteringGaussRadiusIndirect: 5
    m_PVRFilteringGaussRadiusAO: 2
    m_PVRFilteringAtrousPositionSigmaDirect: 0.5
    m_PVRFilteringAtrousPositionSigmaIndirect: 2
    m_PVRFilteringAtrousPositionSigmaAO: 1
    m_ExportTrainingData: 0
    m_TrainingDataDestination: TrainingData
    m_LightProbeSampleCountMultiplier: 4
  m_LightingDataAsset: {fileID: 0}
  m_LightingSettings: {fileID: 4890085278179872738, guid: f44fa3da605158c49a1fe7d91c2d4880, type: 2}
--- !u!196 &4
NavMeshSettings:
  serializedVersion: 2
  m_ObjectHideFlags: 0
  m_BuildSettings:
    serializedVersion: 2
    agentTypeID: 0
    agentRadius: 0.5
    agentHeight: 2
    agentSlope: 45
    agentClimb: 0.4
    ledgeDropHeight: 0
    maxJumpAcrossDistance: 0
    minRegionArea: 2
    manualCellSize: 0
    cellSize: 0.16666667
    manualTileSize: 0
    tileSize: 256
    accuratePlacement: 0
    maxJobWorkers: 0
    preserveTilesOutsideBounds: 0
    debug:
      m_Flags: 0
  m_NavMeshData: {fileID: 0}
--- !u!1 &184965886
GameObject:
  m_ObjectHideFlags: 0
  m_CorrespondingSourceObject: {fileID: 0}
  m_PrefabInstance: {fileID: 0}
  m_PrefabAsset: {fileID: 0}
  serializedVersion: 6
  m_Component:
  - component: {fileID: 184965891}
  - component: {fileID: 184965890}
  - component: {fileID: 184965888}
  - component: {fileID: 184965887}
  m_Layer: 0
  m_Name: Main Camera
  m_TagString: MainCamera
  m_Icon: {fileID: 0}
  m_NavMeshLayer: 0
  m_StaticEditorFlags: 0
  m_IsActive: 1
--- !u!81 &184965887
AudioListener:
  m_ObjectHideFlags: 0
  m_CorrespondingSourceObject: {fileID: 0}
  m_PrefabInstance: {fileID: 0}
  m_PrefabAsset: {fileID: 0}
  m_GameObject: {fileID: 184965886}
  m_Enabled: 1
--- !u!124 &184965888
Behaviour:
  m_ObjectHideFlags: 0
  m_CorrespondingSourceObject: {fileID: 0}
  m_PrefabInstance: {fileID: 0}
  m_PrefabAsset: {fileID: 0}
  m_GameObject: {fileID: 184965886}
  m_Enabled: 1
--- !u!20 &184965890
Camera:
  m_ObjectHideFlags: 0
  m_CorrespondingSourceObject: {fileID: 0}
  m_PrefabInstance: {fileID: 0}
  m_PrefabAsset: {fileID: 0}
  m_GameObject: {fileID: 184965886}
  m_Enabled: 1
  serializedVersion: 2
  m_ClearFlags: 1
  m_BackGroundColor: {r: 0.19215687, g: 0.3019608, b: 0.4745098, a: 0}
  m_projectionMatrixMode: 1
  m_GateFitMode: 2
  m_FOVAxisMode: 0
  m_SensorSize: {x: 36, y: 24}
  m_LensShift: {x: 0, y: 0}
  m_FocalLength: 50
  m_NormalizedViewPortRect:
    serializedVersion: 2
    x: 0
    y: 0
    width: 1
    height: 1
  near clip plane: 0.3
  far clip plane: 1000
  field of view: 60
  orthographic: 0
  orthographic size: 5
  m_Depth: -1
  m_CullingMask:
    serializedVersion: 2
    m_Bits: 4294967295
  m_RenderingPath: -1
  m_TargetTexture: {fileID: 0}
  m_TargetDisplay: 0
  m_TargetEye: 3
  m_HDR: 0
  m_AllowMSAA: 1
  m_AllowDynamicResolution: 0
  m_ForceIntoRT: 0
  m_OcclusionCulling: 1
  m_StereoConvergence: 10
  m_StereoSeparation: 0.022
--- !u!4 &184965891
Transform:
  m_ObjectHideFlags: 0
  m_CorrespondingSourceObject: {fileID: 0}
  m_PrefabInstance: {fileID: 0}
  m_PrefabAsset: {fileID: 0}
  m_GameObject: {fileID: 184965886}
  m_LocalRotation: {x: 0.2181103, y: 0.3871724, z: -0.09324966, w: 0.89097136}
  m_LocalPosition: {x: -85.6, y: 16.5, z: -156.9}
  m_LocalScale: {x: 1, y: 1, z: 1}
  m_Children: []
  m_Father: {fileID: 0}
  m_RootOrder: 0
  m_LocalEulerAnglesHint: {x: 27.421001, y: 46.965004, z: 0.171}
--- !u!1 &356835792
GameObject:
  m_ObjectHideFlags: 0
  m_CorrespondingSourceObject: {fileID: 0}
  m_PrefabInstance: {fileID: 0}
  m_PrefabAsset: {fileID: 0}
  serializedVersion: 6
  m_Component:
  - component: {fileID: 356835793}
  m_Layer: 0
  m_Name: Barrels
  m_TagString: Untagged
  m_Icon: {fileID: 0}
  m_NavMeshLayer: 0
  m_StaticEditorFlags: 0
  m_IsActive: 1
--- !u!4 &356835793
Transform:
  m_ObjectHideFlags: 0
  m_CorrespondingSourceObject: {fileID: 0}
  m_PrefabInstance: {fileID: 0}
  m_PrefabAsset: {fileID: 0}
  m_GameObject: {fileID: 356835792}
  m_LocalRotation: {x: 0, y: 0, z: 0, w: 1}
  m_LocalPosition: {x: -4.737014, y: 5.0288963, z: -5.94}
  m_LocalScale: {x: 1, y: 1, z: 1}
  m_Children:
  - {fileID: 553033985}
  - {fileID: 1985986494}
  - {fileID: 958507559}
  m_Father: {fileID: 0}
  m_RootOrder: 2
  m_LocalEulerAnglesHint: {x: 0, y: 0, z: 0}
--- !u!1 &479599215
GameObject:
  m_ObjectHideFlags: 0
  m_CorrespondingSourceObject: {fileID: 0}
  m_PrefabInstance: {fileID: 0}
  m_PrefabAsset: {fileID: 0}
  serializedVersion: 6
  m_Component:
  - component: {fileID: 479599216}
  m_Layer: 0
  m_Name: Containers
  m_TagString: Untagged
  m_Icon: {fileID: 0}
  m_NavMeshLayer: 0
  m_StaticEditorFlags: 0
  m_IsActive: 1
--- !u!4 &479599216
Transform:
  m_ObjectHideFlags: 0
  m_CorrespondingSourceObject: {fileID: 0}
  m_PrefabInstance: {fileID: 0}
  m_PrefabAsset: {fileID: 0}
  m_GameObject: {fileID: 479599215}
  m_LocalRotation: {x: 0, y: 0, z: 0, w: 1}
  m_LocalPosition: {x: -24.379135, y: 10.417641, z: 8.64}
  m_LocalScale: {x: 1, y: 1, z: 1}
  m_Children:
  - {fileID: 1741562757}
  - {fileID: 1653814789}
  - {fileID: 1091042293}
  - {fileID: 2132736213}
  - {fileID: 1260829439}
  - {fileID: 538494641}
  m_Father: {fileID: 0}
  m_RootOrder: 4
  m_LocalEulerAnglesHint: {x: 0, y: 0, z: 0}
--- !u!1 &510461586
GameObject:
  m_ObjectHideFlags: 0
  m_CorrespondingSourceObject: {fileID: 0}
  m_PrefabInstance: {fileID: 0}
  m_PrefabAsset: {fileID: 0}
  serializedVersion: 6
  m_Component:
  - component: {fileID: 510461588}
  - component: {fileID: 510461587}
  m_Layer: 0
  m_Name: Directional Light
  m_TagString: Untagged
  m_Icon: {fileID: 0}
  m_NavMeshLayer: 0
  m_StaticEditorFlags: 0
  m_IsActive: 1
--- !u!108 &510461587
Light:
  m_ObjectHideFlags: 0
  m_CorrespondingSourceObject: {fileID: 0}
  m_PrefabInstance: {fileID: 0}
  m_PrefabAsset: {fileID: 0}
  m_GameObject: {fileID: 510461586}
  m_Enabled: 1
  serializedVersion: 10
  m_Type: 1
  m_Shape: 0
  m_Color: {r: 1, g: 0.95686275, b: 0.8392157, a: 1}
  m_Intensity: 1
  m_Range: 10
  m_SpotAngle: 30
  m_InnerSpotAngle: 21.80208
  m_CookieSize: 10
  m_Shadows:
    m_Type: 2
    m_Resolution: -1
    m_CustomResolution: -1
    m_Strength: 1
    m_Bias: 0.05
    m_NormalBias: 0.4
    m_NearPlane: 0.2
    m_CullingMatrixOverride:
      e00: 1
      e01: 0
      e02: 0
      e03: 0
      e10: 0
      e11: 1
      e12: 0
      e13: 0
      e20: 0
      e21: 0
      e22: 1
      e23: 0
      e30: 0
      e31: 0
      e32: 0
      e33: 1
    m_UseCullingMatrixOverride: 0
  m_Cookie: {fileID: 0}
  m_DrawHalo: 0
  m_Flare: {fileID: 0}
  m_RenderMode: 0
  m_CullingMask:
    serializedVersion: 2
    m_Bits: 4294967295
  m_RenderingLayerMask: 1
  m_Lightmapping: 4
  m_LightShadowCasterMode: 0
  m_AreaSize: {x: 1, y: 1}
  m_BounceIntensity: 1
  m_ColorTemperature: 6570
  m_UseColorTemperature: 0
  m_BoundingSphereOverride: {x: 0, y: 0, z: 0, w: 0}
  m_UseBoundingSphereOverride: 0
  m_ShadowRadius: 0
  m_ShadowAngle: 0
--- !u!4 &510461588
Transform:
  m_ObjectHideFlags: 0
  m_CorrespondingSourceObject: {fileID: 0}
  m_PrefabInstance: {fileID: 0}
  m_PrefabAsset: {fileID: 0}
  m_GameObject: {fileID: 510461586}
  m_LocalRotation: {x: 0.40821788, y: -0.23456968, z: 0.10938163, w: 0.8754261}
  m_LocalPosition: {x: 0, y: 3, z: 0}
  m_LocalScale: {x: 1, y: 1, z: 1}
  m_Children: []
  m_Father: {fileID: 0}
  m_RootOrder: 1
  m_LocalEulerAnglesHint: {x: 50, y: -30, z: 0}
--- !u!1001 &538494640
PrefabInstance:
  m_ObjectHideFlags: 0
  serializedVersion: 2
  m_Modification:
    m_TransformParent: {fileID: 479599216}
    m_Modifications:
    - target: {fileID: 4000011609285218, guid: c2028b62d7877e04194d5001429cff6b, type: 3}
      propertyPath: m_RootOrder
      value: 5
      objectReference: {fileID: 0}
    - target: {fileID: 4000011609285218, guid: c2028b62d7877e04194d5001429cff6b, type: 3}
      propertyPath: m_LocalPosition.x
      value: 23.469135
      objectReference: {fileID: 0}
    - target: {fileID: 4000011609285218, guid: c2028b62d7877e04194d5001429cff6b, type: 3}
      propertyPath: m_LocalPosition.y
      value: -6.467641
      objectReference: {fileID: 0}
    - target: {fileID: 4000011609285218, guid: c2028b62d7877e04194d5001429cff6b, type: 3}
      propertyPath: m_LocalPosition.z
      value: -5.234441
      objectReference: {fileID: 0}
    - target: {fileID: 4000011609285218, guid: c2028b62d7877e04194d5001429cff6b, type: 3}
      propertyPath: m_LocalRotation.w
      value: 0.0000029504295
      objectReference: {fileID: 0}
    - target: {fileID: 4000011609285218, guid: c2028b62d7877e04194d5001429cff6b, type: 3}
      propertyPath: m_LocalRotation.x
      value: -0
      objectReference: {fileID: 0}
    - target: {fileID: 4000011609285218, guid: c2028b62d7877e04194d5001429cff6b, type: 3}
      propertyPath: m_LocalRotation.y
      value: -1
      objectReference: {fileID: 0}
    - target: {fileID: 4000011609285218, guid: c2028b62d7877e04194d5001429cff6b, type: 3}
      propertyPath: m_LocalRotation.z
      value: -0
      objectReference: {fileID: 0}
    - target: {fileID: 4000011609285218, guid: c2028b62d7877e04194d5001429cff6b, type: 3}
      propertyPath: m_LocalEulerAnglesHint.y
      value: -180.00002
      objectReference: {fileID: 0}
    m_RemovedComponents: []
  m_SourcePrefab: {fileID: 100100000, guid: c2028b62d7877e04194d5001429cff6b, type: 3}
--- !u!4 &538494641 stripped
Transform:
  m_CorrespondingSourceObject: {fileID: 4000011609285218, guid: c2028b62d7877e04194d5001429cff6b, type: 3}
  m_PrefabInstance: {fileID: 538494640}
  m_PrefabAsset: {fileID: 0}
--- !u!1 &538494642 stripped
GameObject:
  m_CorrespondingSourceObject: {fileID: 1000013516874488, guid: c2028b62d7877e04194d5001429cff6b, type: 3}
  m_PrefabInstance: {fileID: 538494640}
  m_PrefabAsset: {fileID: 0}
--- !u!1 &538494643 stripped
GameObject:
  m_CorrespondingSourceObject: {fileID: 1000011519331060, guid: c2028b62d7877e04194d5001429cff6b, type: 3}
  m_PrefabInstance: {fileID: 538494640}
  m_PrefabAsset: {fileID: 0}
--- !u!65 &538494644
BoxCollider:
  m_ObjectHideFlags: 0
  m_CorrespondingSourceObject: {fileID: 0}
  m_PrefabInstance: {fileID: 0}
  m_PrefabAsset: {fileID: 0}
  m_GameObject: {fileID: 538494642}
  m_Material: {fileID: 0}
  m_IsTrigger: 0
  m_Enabled: 1
  serializedVersion: 2
  m_Size: {x: 0.10454034, y: 2.679758, z: 1.4415466}
  m_Center: {x: 0.020261405, y: 0.00000011920929, z: -0.72165984}
--- !u!65 &538494645
BoxCollider:
  m_ObjectHideFlags: 0
  m_CorrespondingSourceObject: {fileID: 0}
  m_PrefabInstance: {fileID: 0}
  m_PrefabAsset: {fileID: 0}
  m_GameObject: {fileID: 538494643}
  m_Material: {fileID: 0}
  m_IsTrigger: 0
  m_Enabled: 1
  serializedVersion: 2
  m_Size: {x: 0.10346854, y: 2.6797593, z: 1.4415469}
  m_Center: {x: 0.019726098, y: -0.00000011920929, z: 0.7207298}
--- !u!1001 &553033984
PrefabInstance:
  m_ObjectHideFlags: 0
  serializedVersion: 2
  m_Modification:
    m_TransformParent: {fileID: 356835793}
    m_Modifications:
    - target: {fileID: 4000011716061034, guid: a22c0c7e17126fa4f89534dc98bcac8f, type: 3}
      propertyPath: m_RootOrder
      value: 0
      objectReference: {fileID: 0}
    - target: {fileID: 4000011716061034, guid: a22c0c7e17126fa4f89534dc98bcac8f, type: 3}
      propertyPath: m_LocalPosition.x
      value: 4.737014
      objectReference: {fileID: 0}
    - target: {fileID: 4000011716061034, guid: a22c0c7e17126fa4f89534dc98bcac8f, type: 3}
      propertyPath: m_LocalPosition.y
      value: -5.03
      objectReference: {fileID: 0}
    - target: {fileID: 4000011716061034, guid: a22c0c7e17126fa4f89534dc98bcac8f, type: 3}
      propertyPath: m_LocalPosition.z
      value: 5.34
      objectReference: {fileID: 0}
    - target: {fileID: 4000011716061034, guid: a22c0c7e17126fa4f89534dc98bcac8f, type: 3}
      propertyPath: m_LocalRotation.w
      value: 1
      objectReference: {fileID: 0}
    - target: {fileID: 4000011716061034, guid: a22c0c7e17126fa4f89534dc98bcac8f, type: 3}
      propertyPath: m_LocalRotation.x
      value: 0
      objectReference: {fileID: 0}
    - target: {fileID: 4000011716061034, guid: a22c0c7e17126fa4f89534dc98bcac8f, type: 3}
      propertyPath: m_LocalRotation.y
      value: 0
      objectReference: {fileID: 0}
    - target: {fileID: 4000011716061034, guid: a22c0c7e17126fa4f89534dc98bcac8f, type: 3}
      propertyPath: m_LocalRotation.z
      value: 0
      objectReference: {fileID: 0}
    m_RemovedComponents: []
  m_SourcePrefab: {fileID: 100100000, guid: a22c0c7e17126fa4f89534dc98bcac8f, type: 3}
--- !u!4 &553033985 stripped
Transform:
  m_CorrespondingSourceObject: {fileID: 4000011716061034, guid: a22c0c7e17126fa4f89534dc98bcac8f, type: 3}
  m_PrefabInstance: {fileID: 553033984}
  m_PrefabAsset: {fileID: 0}
--- !u!1 &562040668
GameObject:
  m_ObjectHideFlags: 0
  m_CorrespondingSourceObject: {fileID: 0}
  m_PrefabInstance: {fileID: 0}
  m_PrefabAsset: {fileID: 0}
  serializedVersion: 6
  m_Component:
  - component: {fileID: 562040669}
  m_Layer: 0
  m_Name: Boxes
  m_TagString: Untagged
  m_Icon: {fileID: 0}
  m_NavMeshLayer: 0
  m_StaticEditorFlags: 0
  m_IsActive: 1
--- !u!4 &562040669
Transform:
  m_ObjectHideFlags: 0
  m_CorrespondingSourceObject: {fileID: 0}
  m_PrefabInstance: {fileID: 0}
  m_PrefabAsset: {fileID: 0}
  m_GameObject: {fileID: 562040668}
  m_LocalRotation: {x: 0, y: 0, z: 0, w: 1}
  m_LocalPosition: {x: -9.030587, y: 8.18588, z: -6.52}
  m_LocalScale: {x: 1, y: 1, z: 1}
  m_Children:
  - {fileID: 1370019067}
  - {fileID: 1948729457}
  - {fileID: 1009383992}
  - {fileID: 1940525171}
  m_Father: {fileID: 0}
  m_RootOrder: 3
  m_LocalEulerAnglesHint: {x: 0, y: 0, z: 0}
--- !u!1001 &958507558
PrefabInstance:
  m_ObjectHideFlags: 0
  serializedVersion: 2
  m_Modification:
    m_TransformParent: {fileID: 356835793}
    m_Modifications:
    - target: {fileID: 4000012177816388, guid: 85a8f6f8dca77df4e9c05f21b5e8ed87, type: 3}
      propertyPath: m_RootOrder
      value: 2
      objectReference: {fileID: 0}
    - target: {fileID: 4000012177816388, guid: 85a8f6f8dca77df4e9c05f21b5e8ed87, type: 3}
      propertyPath: m_LocalPosition.x
      value: 4.737014
      objectReference: {fileID: 0}
    - target: {fileID: 4000012177816388, guid: 85a8f6f8dca77df4e9c05f21b5e8ed87, type: 3}
      propertyPath: m_LocalPosition.y
      value: -5.03
      objectReference: {fileID: 0}
    - target: {fileID: 4000012177816388, guid: 85a8f6f8dca77df4e9c05f21b5e8ed87, type: 3}
      propertyPath: m_LocalPosition.z
      value: 3.9
      objectReference: {fileID: 0}
    - target: {fileID: 4000012177816388, guid: 85a8f6f8dca77df4e9c05f21b5e8ed87, type: 3}
      propertyPath: m_LocalRotation.w
      value: 1
      objectReference: {fileID: 0}
    - target: {fileID: 4000012177816388, guid: 85a8f6f8dca77df4e9c05f21b5e8ed87, type: 3}
      propertyPath: m_LocalRotation.x
      value: 0
      objectReference: {fileID: 0}
    - target: {fileID: 4000012177816388, guid: 85a8f6f8dca77df4e9c05f21b5e8ed87, type: 3}
      propertyPath: m_LocalRotation.y
      value: 0
      objectReference: {fileID: 0}
    - target: {fileID: 4000012177816388, guid: 85a8f6f8dca77df4e9c05f21b5e8ed87, type: 3}
      propertyPath: m_LocalRotation.z
      value: 0
      objectReference: {fileID: 0}
    m_RemovedComponents: []
  m_SourcePrefab: {fileID: 100100000, guid: 85a8f6f8dca77df4e9c05f21b5e8ed87, type: 3}
--- !u!4 &958507559 stripped
Transform:
  m_CorrespondingSourceObject: {fileID: 4000012177816388, guid: 85a8f6f8dca77df4e9c05f21b5e8ed87, type: 3}
  m_PrefabInstance: {fileID: 958507558}
  m_PrefabAsset: {fileID: 0}
--- !u!1001 &1009383991
PrefabInstance:
  m_ObjectHideFlags: 0
  serializedVersion: 2
  m_Modification:
    m_TransformParent: {fileID: 562040669}
    m_Modifications:
    - target: {fileID: 4000012348412654, guid: a50af88759b02d74b8328377b33ab3e8, type: 3}
      propertyPath: m_RootOrder
      value: 2
      objectReference: {fileID: 0}
    - target: {fileID: 4000012348412654, guid: a50af88759b02d74b8328377b33ab3e8, type: 3}
      propertyPath: m_LocalScale.y
      value: 1
      objectReference: {fileID: 0}
    - target: {fileID: 4000012348412654, guid: a50af88759b02d74b8328377b33ab3e8, type: 3}
      propertyPath: m_LocalScale.z
      value: 1
      objectReference: {fileID: 0}
    - target: {fileID: 4000012348412654, guid: a50af88759b02d74b8328377b33ab3e8, type: 3}
      propertyPath: m_LocalPosition.x
      value: 9.030587
      objectReference: {fileID: 0}
    - target: {fileID: 4000012348412654, guid: a50af88759b02d74b8328377b33ab3e8, type: 3}
      propertyPath: m_LocalPosition.y
      value: -8.18588
      objectReference: {fileID: 0}
    - target: {fileID: 4000012348412654, guid: a50af88759b02d74b8328377b33ab3e8, type: 3}
      propertyPath: m_LocalPosition.z
      value: 2.4777474
      objectReference: {fileID: 0}
    - target: {fileID: 4000012348412654, guid: a50af88759b02d74b8328377b33ab3e8, type: 3}
      propertyPath: m_LocalRotation.w
      value: 1
      objectReference: {fileID: 0}
    - target: {fileID: 4000012348412654, guid: a50af88759b02d74b8328377b33ab3e8, type: 3}
      propertyPath: m_LocalRotation.x
      value: 0
      objectReference: {fileID: 0}
    - target: {fileID: 4000012348412654, guid: a50af88759b02d74b8328377b33ab3e8, type: 3}
      propertyPath: m_LocalRotation.y
      value: 0
      objectReference: {fileID: 0}
    - target: {fileID: 4000012348412654, guid: a50af88759b02d74b8328377b33ab3e8, type: 3}
      propertyPath: m_LocalRotation.z
      value: 0
      objectReference: {fileID: 0}
    m_RemovedComponents: []
  m_SourcePrefab: {fileID: 100100000, guid: a50af88759b02d74b8328377b33ab3e8, type: 3}
--- !u!4 &1009383992 stripped
Transform:
  m_CorrespondingSourceObject: {fileID: 4000012348412654, guid: a50af88759b02d74b8328377b33ab3e8, type: 3}
  m_PrefabInstance: {fileID: 1009383991}
  m_PrefabAsset: {fileID: 0}
--- !u!1 &1009383993 stripped
GameObject:
  m_CorrespondingSourceObject: {fileID: 1000013580012832, guid: a50af88759b02d74b8328377b33ab3e8, type: 3}
  m_PrefabInstance: {fileID: 1009383991}
  m_PrefabAsset: {fileID: 0}
--- !u!65 &1009383994
BoxCollider:
  m_ObjectHideFlags: 0
  m_CorrespondingSourceObject: {fileID: 0}
  m_PrefabInstance: {fileID: 0}
  m_PrefabAsset: {fileID: 0}
  m_GameObject: {fileID: 1009383993}
  m_Material: {fileID: 0}
  m_IsTrigger: 0
  m_Enabled: 1
  serializedVersion: 2
  m_Size: {x: 1.0936637, y: 0.67138124, z: 1.7901659}
  m_Center: {x: 0, y: 0.00000010430813, z: 0.00000008940697}
--- !u!1001 &1091042292
PrefabInstance:
  m_ObjectHideFlags: 0
  serializedVersion: 2
  m_Modification:
    m_TransformParent: {fileID: 479599216}
    m_Modifications:
    - target: {fileID: 4000011758990698, guid: 9615d776614809e4890301d5377aeb9f, type: 3}
      propertyPath: m_RootOrder
      value: 2
      objectReference: {fileID: 0}
    - target: {fileID: 4000011758990698, guid: 9615d776614809e4890301d5377aeb9f, type: 3}
      propertyPath: m_LocalScale.x
      value: 1
      objectReference: {fileID: 0}
    - target: {fileID: 4000011758990698, guid: 9615d776614809e4890301d5377aeb9f, type: 3}
      propertyPath: m_LocalScale.y
      value: 1
      objectReference: {fileID: 0}
    - target: {fileID: 4000011758990698, guid: 9615d776614809e4890301d5377aeb9f, type: 3}
      propertyPath: m_LocalScale.z
      value: 1
      objectReference: {fileID: 0}
    - target: {fileID: 4000011758990698, guid: 9615d776614809e4890301d5377aeb9f, type: 3}
      propertyPath: m_LocalPosition.x
      value: 23.47
      objectReference: {fileID: 0}
    - target: {fileID: 4000011758990698, guid: 9615d776614809e4890301d5377aeb9f, type: 3}
      propertyPath: m_LocalPosition.y
      value: -10.42
      objectReference: {fileID: 0}
    - target: {fileID: 4000011758990698, guid: 9615d776614809e4890301d5377aeb9f, type: 3}
      propertyPath: m_LocalPosition.z
      value: -0.77
      objectReference: {fileID: 0}
    - target: {fileID: 4000011758990698, guid: 9615d776614809e4890301d5377aeb9f, type: 3}
      propertyPath: m_LocalRotation.w
      value: 1
      objectReference: {fileID: 0}
    - target: {fileID: 4000011758990698, guid: 9615d776614809e4890301d5377aeb9f, type: 3}
      propertyPath: m_LocalRotation.x
      value: 0
      objectReference: {fileID: 0}
    - target: {fileID: 4000011758990698, guid: 9615d776614809e4890301d5377aeb9f, type: 3}
      propertyPath: m_LocalRotation.y
      value: 0
      objectReference: {fileID: 0}
    - target: {fileID: 4000011758990698, guid: 9615d776614809e4890301d5377aeb9f, type: 3}
      propertyPath: m_LocalRotation.z
      value: 0
      objectReference: {fileID: 0}
    - target: {fileID: 4000011758990698, guid: 9615d776614809e4890301d5377aeb9f, type: 3}
      propertyPath: m_LocalEulerAnglesHint.y
      value: 0
      objectReference: {fileID: 0}
    m_RemovedComponents: []
  m_SourcePrefab: {fileID: 100100000, guid: 9615d776614809e4890301d5377aeb9f, type: 3}
--- !u!4 &1091042293 stripped
Transform:
  m_CorrespondingSourceObject: {fileID: 4000011758990698, guid: 9615d776614809e4890301d5377aeb9f, type: 3}
  m_PrefabInstance: {fileID: 1091042292}
  m_PrefabAsset: {fileID: 0}
--- !u!1 &1091042294 stripped
GameObject:
  m_CorrespondingSourceObject: {fileID: 1000013479777962, guid: 9615d776614809e4890301d5377aeb9f, type: 3}
  m_PrefabInstance: {fileID: 1091042292}
  m_PrefabAsset: {fileID: 0}
--- !u!64 &1091042295
MeshCollider:
  m_ObjectHideFlags: 0
  m_CorrespondingSourceObject: {fileID: 0}
  m_PrefabInstance: {fileID: 0}
  m_PrefabAsset: {fileID: 0}
  m_GameObject: {fileID: 1091042294}
  m_Material: {fileID: 0}
  m_IsTrigger: 0
  m_Enabled: 1
  serializedVersion: 4
  m_Convex: 0
  m_CookingOptions: 30
  m_Mesh: {fileID: 4300030, guid: 856f086268c2c1b4f8f1d4b9bc614217, type: 3}
--- !u!1001 &1260829438
PrefabInstance:
  m_ObjectHideFlags: 0
  serializedVersion: 2
  m_Modification:
    m_TransformParent: {fileID: 479599216}
    m_Modifications:
    - target: {fileID: 4000010202300486, guid: 7efb7a11251ce1342b172668cbdc65c8, type: 3}
      propertyPath: m_RootOrder
      value: 4
      objectReference: {fileID: 0}
    - target: {fileID: 4000010202300486, guid: 7efb7a11251ce1342b172668cbdc65c8, type: 3}
      propertyPath: m_LocalScale.x
      value: 1
      objectReference: {fileID: 0}
    - target: {fileID: 4000010202300486, guid: 7efb7a11251ce1342b172668cbdc65c8, type: 3}
      propertyPath: m_LocalScale.y
      value: 1
      objectReference: {fileID: 0}
    - target: {fileID: 4000010202300486, guid: 7efb7a11251ce1342b172668cbdc65c8, type: 3}
      propertyPath: m_LocalScale.z
      value: 1
      objectReference: {fileID: 0}
    - target: {fileID: 4000010202300486, guid: 7efb7a11251ce1342b172668cbdc65c8, type: 3}
      propertyPath: m_LocalPosition.x
      value: 23.47
      objectReference: {fileID: 0}
    - target: {fileID: 4000010202300486, guid: 7efb7a11251ce1342b172668cbdc65c8, type: 3}
      propertyPath: m_LocalPosition.y
      value: -6.36
      objectReference: {fileID: 0}
    - target: {fileID: 4000010202300486, guid: 7efb7a11251ce1342b172668cbdc65c8, type: 3}
      propertyPath: m_LocalPosition.z
      value: -0.77
      objectReference: {fileID: 0}
    - target: {fileID: 4000010202300486, guid: 7efb7a11251ce1342b172668cbdc65c8, type: 3}
      propertyPath: m_LocalRotation.w
      value: 1
      objectReference: {fileID: 0}
    - target: {fileID: 4000010202300486, guid: 7efb7a11251ce1342b172668cbdc65c8, type: 3}
      propertyPath: m_LocalRotation.x
      value: 0
      objectReference: {fileID: 0}
    - target: {fileID: 4000010202300486, guid: 7efb7a11251ce1342b172668cbdc65c8, type: 3}
      propertyPath: m_LocalRotation.y
      value: 0
      objectReference: {fileID: 0}
    - target: {fileID: 4000010202300486, guid: 7efb7a11251ce1342b172668cbdc65c8, type: 3}
      propertyPath: m_LocalRotation.z
      value: 0
      objectReference: {fileID: 0}
    - target: {fileID: 4000010202300486, guid: 7efb7a11251ce1342b172668cbdc65c8, type: 3}
      propertyPath: m_LocalEulerAnglesHint.y
      value: 0
      objectReference: {fileID: 0}
    m_RemovedComponents: []
  m_SourcePrefab: {fileID: 100100000, guid: 7efb7a11251ce1342b172668cbdc65c8, type: 3}
--- !u!4 &1260829439 stripped
Transform:
  m_CorrespondingSourceObject: {fileID: 4000010202300486, guid: 7efb7a11251ce1342b172668cbdc65c8, type: 3}
  m_PrefabInstance: {fileID: 1260829438}
  m_PrefabAsset: {fileID: 0}
--- !u!1 &1260829440 stripped
GameObject:
  m_CorrespondingSourceObject: {fileID: 1000013482175582, guid: 7efb7a11251ce1342b172668cbdc65c8, type: 3}
  m_PrefabInstance: {fileID: 1260829438}
  m_PrefabAsset: {fileID: 0}
--- !u!64 &1260829441
MeshCollider:
  m_ObjectHideFlags: 0
  m_CorrespondingSourceObject: {fileID: 0}
  m_PrefabInstance: {fileID: 0}
  m_PrefabAsset: {fileID: 0}
  m_GameObject: {fileID: 1260829440}
  m_Material: {fileID: 0}
  m_IsTrigger: 0
  m_Enabled: 1
  serializedVersion: 4
  m_Convex: 0
  m_CookingOptions: 30
  m_Mesh: {fileID: 4300024, guid: 856f086268c2c1b4f8f1d4b9bc614217, type: 3}
--- !u!1001 &1370019066
PrefabInstance:
  m_ObjectHideFlags: 0
  serializedVersion: 2
  m_Modification:
    m_TransformParent: {fileID: 562040669}
    m_Modifications:
    - target: {fileID: 4000012771108642, guid: 9d1bb44d500a3ad489d3cb3a6900199f, type: 3}
      propertyPath: m_RootOrder
      value: 0
      objectReference: {fileID: 0}
    - target: {fileID: 4000012771108642, guid: 9d1bb44d500a3ad489d3cb3a6900199f, type: 3}
      propertyPath: m_LocalScale.y
      value: 1
      objectReference: {fileID: 0}
    - target: {fileID: 4000012771108642, guid: 9d1bb44d500a3ad489d3cb3a6900199f, type: 3}
      propertyPath: m_LocalScale.z
      value: 1
      objectReference: {fileID: 0}
    - target: {fileID: 4000012771108642, guid: 9d1bb44d500a3ad489d3cb3a6900199f, type: 3}
      propertyPath: m_LocalPosition.x
      value: 7.532587
      objectReference: {fileID: 0}
    - target: {fileID: 4000012771108642, guid: 9d1bb44d500a3ad489d3cb3a6900199f, type: 3}
      propertyPath: m_LocalPosition.y
      value: -8.18588
      objectReference: {fileID: 0}
    - target: {fileID: 4000012771108642, guid: 9d1bb44d500a3ad489d3cb3a6900199f, type: 3}
      propertyPath: m_LocalPosition.z
      value: 2.4777474
      objectReference: {fileID: 0}
    - target: {fileID: 4000012771108642, guid: 9d1bb44d500a3ad489d3cb3a6900199f, type: 3}
      propertyPath: m_LocalRotation.w
      value: 1
      objectReference: {fileID: 0}
    - target: {fileID: 4000012771108642, guid: 9d1bb44d500a3ad489d3cb3a6900199f, type: 3}
      propertyPath: m_LocalRotation.x
      value: 0
      objectReference: {fileID: 0}
    - target: {fileID: 4000012771108642, guid: 9d1bb44d500a3ad489d3cb3a6900199f, type: 3}
      propertyPath: m_LocalRotation.y
      value: 0
      objectReference: {fileID: 0}
    - target: {fileID: 4000012771108642, guid: 9d1bb44d500a3ad489d3cb3a6900199f, type: 3}
      propertyPath: m_LocalRotation.z
      value: 0
      objectReference: {fileID: 0}
    m_RemovedComponents: []
  m_SourcePrefab: {fileID: 100100000, guid: 9d1bb44d500a3ad489d3cb3a6900199f, type: 3}
--- !u!4 &1370019067 stripped
Transform:
  m_CorrespondingSourceObject: {fileID: 4000012771108642, guid: 9d1bb44d500a3ad489d3cb3a6900199f, type: 3}
  m_PrefabInstance: {fileID: 1370019066}
  m_PrefabAsset: {fileID: 0}
--- !u!1 &1370019068 stripped
GameObject:
  m_CorrespondingSourceObject: {fileID: 1000011585897626, guid: 9d1bb44d500a3ad489d3cb3a6900199f, type: 3}
  m_PrefabInstance: {fileID: 1370019066}
  m_PrefabAsset: {fileID: 0}
--- !u!65 &1370019069
BoxCollider:
  m_ObjectHideFlags: 0
  m_CorrespondingSourceObject: {fileID: 0}
  m_PrefabInstance: {fileID: 0}
  m_PrefabAsset: {fileID: 0}
  m_GameObject: {fileID: 1370019068}
  m_Material: {fileID: 0}
  m_IsTrigger: 0
  m_Enabled: 1
  serializedVersion: 2
  m_Size: {x: 1.0936633, y: 0.6713812, z: 1.7901654}
  m_Center: {x: 0, y: 0, z: -0.000000029802322}
--- !u!1001 &1653814788
PrefabInstance:
  m_ObjectHideFlags: 0
  serializedVersion: 2
  m_Modification:
    m_TransformParent: {fileID: 479599216}
    m_Modifications:
    - target: {fileID: 4000012506713666, guid: 58d97d456aead63499ac7d5316541f78, type: 3}
      propertyPath: m_RootOrder
      value: 1
      objectReference: {fileID: 0}
    - target: {fileID: 4000012506713666, guid: 58d97d456aead63499ac7d5316541f78, type: 3}
      propertyPath: m_LocalScale.x
      value: 1
      objectReference: {fileID: 0}
    - target: {fileID: 4000012506713666, guid: 58d97d456aead63499ac7d5316541f78, type: 3}
      propertyPath: m_LocalScale.y
      value: 1
      objectReference: {fileID: 0}
    - target: {fileID: 4000012506713666, guid: 58d97d456aead63499ac7d5316541f78, type: 3}
      propertyPath: m_LocalScale.z
      value: 1
      objectReference: {fileID: 0}
    - target: {fileID: 4000012506713666, guid: 58d97d456aead63499ac7d5316541f78, type: 3}
      propertyPath: m_LocalPosition.x
      value: 23.8
      objectReference: {fileID: 0}
    - target: {fileID: 4000012506713666, guid: 58d97d456aead63499ac7d5316541f78, type: 3}
      propertyPath: m_LocalPosition.y
      value: -6.36
      objectReference: {fileID: 0}
    - target: {fileID: 4000012506713666, guid: 58d97d456aead63499ac7d5316541f78, type: 3}
      propertyPath: m_LocalPosition.z
      value: 3.7399998
      objectReference: {fileID: 0}
    - target: {fileID: 4000012506713666, guid: 58d97d456aead63499ac7d5316541f78, type: 3}
      propertyPath: m_LocalRotation.w
      value: 0.0000028461216
      objectReference: {fileID: 0}
    - target: {fileID: 4000012506713666, guid: 58d97d456aead63499ac7d5316541f78, type: 3}
      propertyPath: m_LocalRotation.x
      value: -0
      objectReference: {fileID: 0}
    - target: {fileID: 4000012506713666, guid: 58d97d456aead63499ac7d5316541f78, type: 3}
      propertyPath: m_LocalRotation.y
      value: -1
      objectReference: {fileID: 0}
    - target: {fileID: 4000012506713666, guid: 58d97d456aead63499ac7d5316541f78, type: 3}
      propertyPath: m_LocalRotation.z
      value: -0
      objectReference: {fileID: 0}
    - target: {fileID: 4000012506713666, guid: 58d97d456aead63499ac7d5316541f78, type: 3}
      propertyPath: m_LocalEulerAnglesHint.y
      value: -180.00002
      objectReference: {fileID: 0}
    m_RemovedComponents: []
  m_SourcePrefab: {fileID: 100100000, guid: 58d97d456aead63499ac7d5316541f78, type: 3}
--- !u!4 &1653814789 stripped
Transform:
  m_CorrespondingSourceObject: {fileID: 4000012506713666, guid: 58d97d456aead63499ac7d5316541f78, type: 3}
  m_PrefabInstance: {fileID: 1653814788}
  m_PrefabAsset: {fileID: 0}
--- !u!1 &1653814790 stripped
GameObject:
  m_CorrespondingSourceObject: {fileID: 1000010817437606, guid: 58d97d456aead63499ac7d5316541f78, type: 3}
  m_PrefabInstance: {fileID: 1653814788}
  m_PrefabAsset: {fileID: 0}
--- !u!65 &1653814791
BoxCollider:
  m_ObjectHideFlags: 0
  m_CorrespondingSourceObject: {fileID: 0}
  m_PrefabInstance: {fileID: 0}
  m_PrefabAsset: {fileID: 0}
  m_GameObject: {fileID: 1653814790}
  m_Material: {fileID: 0}
  m_IsTrigger: 0
  m_Enabled: 1
  serializedVersion: 2
  m_Size: {x: 8, y: 3.0000007, z: 3.000002}
  m_Center: {x: 0, y: 0, z: 0}
--- !u!1001 &1741562756
PrefabInstance:
  m_ObjectHideFlags: 0
  serializedVersion: 2
  m_Modification:
    m_TransformParent: {fileID: 479599216}
    m_Modifications:
    - target: {fileID: 4000011048348644, guid: 84147b87204d0a0478bae9558d656ea2, type: 3}
      propertyPath: m_RootOrder
      value: 0
      objectReference: {fileID: 0}
    - target: {fileID: 4000011048348644, guid: 84147b87204d0a0478bae9558d656ea2, type: 3}
      propertyPath: m_LocalScale.x
      value: 1
      objectReference: {fileID: 0}
    - target: {fileID: 4000011048348644, guid: 84147b87204d0a0478bae9558d656ea2, type: 3}
      propertyPath: m_LocalScale.y
      value: 1
      objectReference: {fileID: 0}
    - target: {fileID: 4000011048348644, guid: 84147b87204d0a0478bae9558d656ea2, type: 3}
      propertyPath: m_LocalScale.z
      value: 1
      objectReference: {fileID: 0}
    - target: {fileID: 4000011048348644, guid: 84147b87204d0a0478bae9558d656ea2, type: 3}
      propertyPath: m_LocalPosition.x
      value: 23.8
      objectReference: {fileID: 0}
    - target: {fileID: 4000011048348644, guid: 84147b87204d0a0478bae9558d656ea2, type: 3}
      propertyPath: m_LocalPosition.y
      value: -10.42
      objectReference: {fileID: 0}
    - target: {fileID: 4000011048348644, guid: 84147b87204d0a0478bae9558d656ea2, type: 3}
      propertyPath: m_LocalPosition.z
      value: 3.7399998
      objectReference: {fileID: 0}
    - target: {fileID: 4000011048348644, guid: 84147b87204d0a0478bae9558d656ea2, type: 3}
      propertyPath: m_LocalRotation.w
      value: 0.0000028461216
      objectReference: {fileID: 0}
    - target: {fileID: 4000011048348644, guid: 84147b87204d0a0478bae9558d656ea2, type: 3}
      propertyPath: m_LocalRotation.x
      value: -0
      objectReference: {fileID: 0}
    - target: {fileID: 4000011048348644, guid: 84147b87204d0a0478bae9558d656ea2, type: 3}
      propertyPath: m_LocalRotation.y
      value: -1
      objectReference: {fileID: 0}
    - target: {fileID: 4000011048348644, guid: 84147b87204d0a0478bae9558d656ea2, type: 3}
      propertyPath: m_LocalRotation.z
      value: -0
      objectReference: {fileID: 0}
    - target: {fileID: 4000011048348644, guid: 84147b87204d0a0478bae9558d656ea2, type: 3}
      propertyPath: m_LocalEulerAnglesHint.y
      value: -180.00002
      objectReference: {fileID: 0}
    m_RemovedComponents: []
  m_SourcePrefab: {fileID: 100100000, guid: 84147b87204d0a0478bae9558d656ea2, type: 3}
--- !u!4 &1741562757 stripped
Transform:
  m_CorrespondingSourceObject: {fileID: 4000011048348644, guid: 84147b87204d0a0478bae9558d656ea2, type: 3}
  m_PrefabInstance: {fileID: 1741562756}
  m_PrefabAsset: {fileID: 0}
--- !u!1 &1741562758 stripped
GameObject:
  m_CorrespondingSourceObject: {fileID: 1000011523426384, guid: 84147b87204d0a0478bae9558d656ea2, type: 3}
  m_PrefabInstance: {fileID: 1741562756}
  m_PrefabAsset: {fileID: 0}
--- !u!65 &1741562759
BoxCollider:
  m_ObjectHideFlags: 0
  m_CorrespondingSourceObject: {fileID: 0}
  m_PrefabInstance: {fileID: 0}
  m_PrefabAsset: {fileID: 0}
  m_GameObject: {fileID: 1741562758}
  m_Material: {fileID: 0}
  m_IsTrigger: 0
  m_Enabled: 1
  serializedVersion: 2
  m_Size: {x: 8, y: 3, z: 3}
  m_Center: {x: -0.00000047683716, y: 0, z: 0}
--- !u!1001 &1940525170
PrefabInstance:
  m_ObjectHideFlags: 0
  serializedVersion: 2
  m_Modification:
    m_TransformParent: {fileID: 562040669}
    m_Modifications:
    - target: {fileID: 4000010570413510, guid: 395dcd74773407e4faa9906eedf6f75d, type: 3}
      propertyPath: m_RootOrder
      value: 3
      objectReference: {fileID: 0}
    - target: {fileID: 4000010570413510, guid: 395dcd74773407e4faa9906eedf6f75d, type: 3}
      propertyPath: m_LocalScale.y
      value: 1
      objectReference: {fileID: 0}
    - target: {fileID: 4000010570413510, guid: 395dcd74773407e4faa9906eedf6f75d, type: 3}
      propertyPath: m_LocalScale.z
      value: 1
      objectReference: {fileID: 0}
    - target: {fileID: 4000010570413510, guid: 395dcd74773407e4faa9906eedf6f75d, type: 3}
      propertyPath: m_LocalPosition.x
      value: 5.9505873
      objectReference: {fileID: 0}
    - target: {fileID: 4000010570413510, guid: 395dcd74773407e4faa9906eedf6f75d, type: 3}
      propertyPath: m_LocalPosition.y
      value: -8.18588
      objectReference: {fileID: 0}
    - target: {fileID: 4000010570413510, guid: 395dcd74773407e4faa9906eedf6f75d, type: 3}
      propertyPath: m_LocalPosition.z
      value: 2.4777474
      objectReference: {fileID: 0}
    - target: {fileID: 4000010570413510, guid: 395dcd74773407e4faa9906eedf6f75d, type: 3}
      propertyPath: m_LocalRotation.w
      value: 1
      objectReference: {fileID: 0}
    - target: {fileID: 4000010570413510, guid: 395dcd74773407e4faa9906eedf6f75d, type: 3}
      propertyPath: m_LocalRotation.x
      value: 0
      objectReference: {fileID: 0}
    - target: {fileID: 4000010570413510, guid: 395dcd74773407e4faa9906eedf6f75d, type: 3}
      propertyPath: m_LocalRotation.y
      value: 0
      objectReference: {fileID: 0}
    - target: {fileID: 4000010570413510, guid: 395dcd74773407e4faa9906eedf6f75d, type: 3}
      propertyPath: m_LocalRotation.z
      value: 0
      objectReference: {fileID: 0}
    m_RemovedComponents: []
  m_SourcePrefab: {fileID: 100100000, guid: 395dcd74773407e4faa9906eedf6f75d, type: 3}
--- !u!4 &1940525171 stripped
Transform:
  m_CorrespondingSourceObject: {fileID: 4000010570413510, guid: 395dcd74773407e4faa9906eedf6f75d, type: 3}
  m_PrefabInstance: {fileID: 1940525170}
  m_PrefabAsset: {fileID: 0}
--- !u!1 &1940525172 stripped
GameObject:
  m_CorrespondingSourceObject: {fileID: 1000010619805496, guid: 395dcd74773407e4faa9906eedf6f75d, type: 3}
  m_PrefabInstance: {fileID: 1940525170}
  m_PrefabAsset: {fileID: 0}
--- !u!65 &1940525173
BoxCollider:
  m_ObjectHideFlags: 0
  m_CorrespondingSourceObject: {fileID: 0}
  m_PrefabInstance: {fileID: 0}
  m_PrefabAsset: {fileID: 0}
  m_GameObject: {fileID: 1940525172}
  m_Material: {fileID: 0}
  m_IsTrigger: 0
  m_Enabled: 1
  serializedVersion: 2
  m_Size: {x: 0.8103733, y: 0.81238276, z: 0.8102383}
  m_Center: {x: 0, y: 0, z: -0.000000029802322}
--- !u!1001 &1948729456
PrefabInstance:
  m_ObjectHideFlags: 0
  serializedVersion: 2
  m_Modification:
    m_TransformParent: {fileID: 562040669}
    m_Modifications:
    - target: {fileID: 4000013149834228, guid: 6857ff1d3761e21479727f3b27cc8f68, type: 3}
      propertyPath: m_RootOrder
      value: 1
      objectReference: {fileID: 0}
    - target: {fileID: 4000013149834228, guid: 6857ff1d3761e21479727f3b27cc8f68, type: 3}
      propertyPath: m_LocalScale.y
      value: 1
      objectReference: {fileID: 0}
    - target: {fileID: 4000013149834228, guid: 6857ff1d3761e21479727f3b27cc8f68, type: 3}
      propertyPath: m_LocalScale.z
      value: 1
      objectReference: {fileID: 0}
    - target: {fileID: 4000013149834228, guid: 6857ff1d3761e21479727f3b27cc8f68, type: 3}
      propertyPath: m_LocalPosition.x
      value: 4.8305874
      objectReference: {fileID: 0}
    - target: {fileID: 4000013149834228, guid: 6857ff1d3761e21479727f3b27cc8f68, type: 3}
      propertyPath: m_LocalPosition.y
      value: -8.18588
      objectReference: {fileID: 0}
    - target: {fileID: 4000013149834228, guid: 6857ff1d3761e21479727f3b27cc8f68, type: 3}
      propertyPath: m_LocalPosition.z
      value: 2.4777474
      objectReference: {fileID: 0}
    - target: {fileID: 4000013149834228, guid: 6857ff1d3761e21479727f3b27cc8f68, type: 3}
      propertyPath: m_LocalRotation.w
      value: 1
      objectReference: {fileID: 0}
    - target: {fileID: 4000013149834228, guid: 6857ff1d3761e21479727f3b27cc8f68, type: 3}
      propertyPath: m_LocalRotation.x
      value: 0
      objectReference: {fileID: 0}
    - target: {fileID: 4000013149834228, guid: 6857ff1d3761e21479727f3b27cc8f68, type: 3}
      propertyPath: m_LocalRotation.y
      value: 0
      objectReference: {fileID: 0}
    - target: {fileID: 4000013149834228, guid: 6857ff1d3761e21479727f3b27cc8f68, type: 3}
      propertyPath: m_LocalRotation.z
      value: 0
      objectReference: {fileID: 0}
    m_RemovedComponents: []
  m_SourcePrefab: {fileID: 100100000, guid: 6857ff1d3761e21479727f3b27cc8f68, type: 3}
--- !u!4 &1948729457 stripped
Transform:
  m_CorrespondingSourceObject: {fileID: 4000013149834228, guid: 6857ff1d3761e21479727f3b27cc8f68, type: 3}
  m_PrefabInstance: {fileID: 1948729456}
  m_PrefabAsset: {fileID: 0}
--- !u!1 &1948729458 stripped
GameObject:
  m_CorrespondingSourceObject: {fileID: 1000010811274378, guid: 6857ff1d3761e21479727f3b27cc8f68, type: 3}
  m_PrefabInstance: {fileID: 1948729456}
  m_PrefabAsset: {fileID: 0}
--- !u!65 &1948729459
BoxCollider:
  m_ObjectHideFlags: 0
  m_CorrespondingSourceObject: {fileID: 0}
  m_PrefabInstance: {fileID: 0}
  m_PrefabAsset: {fileID: 0}
  m_GameObject: {fileID: 1948729458}
  m_Material: {fileID: 0}
  m_IsTrigger: 0
  m_Enabled: 1
  serializedVersion: 2
  m_Size: {x: 0.8101466, y: 0.81238234, z: 0.8101462}
  m_Center: {x: 0.000000029802322, y: 0.000000014901161, z: 0.000000044703484}
--- !u!1001 &1985986493
PrefabInstance:
  m_ObjectHideFlags: 0
  serializedVersion: 2
  m_Modification:
    m_TransformParent: {fileID: 356835793}
    m_Modifications:
    - target: {fileID: 4000012210411258, guid: 17002e90aebb00b40a69cf6fe9083dfc, type: 3}
      propertyPath: m_RootOrder
      value: 1
      objectReference: {fileID: 0}
    - target: {fileID: 4000012210411258, guid: 17002e90aebb00b40a69cf6fe9083dfc, type: 3}
      propertyPath: m_LocalPosition.x
      value: 4.737014
      objectReference: {fileID: 0}
    - target: {fileID: 4000012210411258, guid: 17002e90aebb00b40a69cf6fe9083dfc, type: 3}
      propertyPath: m_LocalPosition.y
      value: -5.03
      objectReference: {fileID: 0}
    - target: {fileID: 4000012210411258, guid: 17002e90aebb00b40a69cf6fe9083dfc, type: 3}
      propertyPath: m_LocalPosition.z
      value: 4.61
      objectReference: {fileID: 0}
    - target: {fileID: 4000012210411258, guid: 17002e90aebb00b40a69cf6fe9083dfc, type: 3}
      propertyPath: m_LocalRotation.w
      value: 1
      objectReference: {fileID: 0}
    - target: {fileID: 4000012210411258, guid: 17002e90aebb00b40a69cf6fe9083dfc, type: 3}
      propertyPath: m_LocalRotation.x
      value: 0
      objectReference: {fileID: 0}
    - target: {fileID: 4000012210411258, guid: 17002e90aebb00b40a69cf6fe9083dfc, type: 3}
      propertyPath: m_LocalRotation.y
      value: 0
      objectReference: {fileID: 0}
    - target: {fileID: 4000012210411258, guid: 17002e90aebb00b40a69cf6fe9083dfc, type: 3}
      propertyPath: m_LocalRotation.z
      value: 0
      objectReference: {fileID: 0}
    m_RemovedComponents: []
  m_SourcePrefab: {fileID: 100100000, guid: 17002e90aebb00b40a69cf6fe9083dfc, type: 3}
--- !u!4 &1985986494 stripped
Transform:
  m_CorrespondingSourceObject: {fileID: 4000012210411258, guid: 17002e90aebb00b40a69cf6fe9083dfc, type: 3}
  m_PrefabInstance: {fileID: 1985986493}
  m_PrefabAsset: {fileID: 0}
--- !u!1001 &2132736212
PrefabInstance:
  m_ObjectHideFlags: 0
  serializedVersion: 2
  m_Modification:
    m_TransformParent: {fileID: 479599216}
    m_Modifications:
    - target: {fileID: 4000013554313012, guid: 75e99e987b1c5aa48b7b9e465f768fa3, type: 3}
      propertyPath: m_RootOrder
      value: 3
      objectReference: {fileID: 0}
    - target: {fileID: 4000013554313012, guid: 75e99e987b1c5aa48b7b9e465f768fa3, type: 3}
      propertyPath: m_LocalPosition.x
      value: 22.449135
      objectReference: {fileID: 0}
    - target: {fileID: 4000013554313012, guid: 75e99e987b1c5aa48b7b9e465f768fa3, type: 3}
      propertyPath: m_LocalPosition.y
      value: -10.52764
      objectReference: {fileID: 0}
    - target: {fileID: 4000013554313012, guid: 75e99e987b1c5aa48b7b9e465f768fa3, type: 3}
      propertyPath: m_LocalPosition.z
      value: -5.584441
      objectReference: {fileID: 0}
    - target: {fileID: 4000013554313012, guid: 75e99e987b1c5aa48b7b9e465f768fa3, type: 3}
      propertyPath: m_LocalRotation.w
      value: 0.0000022947786
      objectReference: {fileID: 0}
    - target: {fileID: 4000013554313012, guid: 75e99e987b1c5aa48b7b9e465f768fa3, type: 3}
      propertyPath: m_LocalRotation.x
      value: -0
      objectReference: {fileID: 0}
    - target: {fileID: 4000013554313012, guid: 75e99e987b1c5aa48b7b9e465f768fa3, type: 3}
      propertyPath: m_LocalRotation.y
      value: -1
      objectReference: {fileID: 0}
    - target: {fileID: 4000013554313012, guid: 75e99e987b1c5aa48b7b9e465f768fa3, type: 3}
      propertyPath: m_LocalRotation.z
      value: -0
      objectReference: {fileID: 0}
    - target: {fileID: 4000013554313012, guid: 75e99e987b1c5aa48b7b9e465f768fa3, type: 3}
      propertyPath: m_LocalEulerAnglesHint.y
      value: -180.00002
      objectReference: {fileID: 0}
    m_RemovedComponents: []
  m_SourcePrefab: {fileID: 100100000, guid: 75e99e987b1c5aa48b7b9e465f768fa3, type: 3}
--- !u!4 &2132736213 stripped
Transform:
  m_CorrespondingSourceObject: {fileID: 4000013554313012, guid: 75e99e987b1c5aa48b7b9e465f768fa3, type: 3}
  m_PrefabInstance: {fileID: 2132736212}
  m_PrefabAsset: {fileID: 0}
--- !u!1 &2132736214 stripped
GameObject:
  m_CorrespondingSourceObject: {fileID: 1000012928738652, guid: 75e99e987b1c5aa48b7b9e465f768fa3, type: 3}
  m_PrefabInstance: {fileID: 2132736212}
  m_PrefabAsset: {fileID: 0}
--- !u!1 &2132736215 stripped
GameObject:
  m_CorrespondingSourceObject: {fileID: 1000014204268654, guid: 75e99e987b1c5aa48b7b9e465f768fa3, type: 3}
  m_PrefabInstance: {fileID: 2132736212}
  m_PrefabAsset: {fileID: 0}
--- !u!1 &2132736216 stripped
GameObject:
  m_CorrespondingSourceObject: {fileID: 1000011945342644, guid: 75e99e987b1c5aa48b7b9e465f768fa3, type: 3}
  m_PrefabInstance: {fileID: 2132736212}
  m_PrefabAsset: {fileID: 0}
--- !u!64 &2132736217
MeshCollider:
  m_ObjectHideFlags: 0
  m_CorrespondingSourceObject: {fileID: 0}
  m_PrefabInstance: {fileID: 0}
  m_PrefabAsset: {fileID: 0}
  m_GameObject: {fileID: 2132736214}
  m_Material: {fileID: 0}
  m_IsTrigger: 0
  m_Enabled: 1
  serializedVersion: 4
  m_Convex: 0
  m_CookingOptions: 30
  m_Mesh: {fileID: 4300028, guid: 856f086268c2c1b4f8f1d4b9bc614217, type: 3}
--- !u!65 &2132736218
BoxCollider:
  m_ObjectHideFlags: 0
  m_CorrespondingSourceObject: {fileID: 0}
  m_PrefabInstance: {fileID: 0}
  m_PrefabAsset: {fileID: 0}
  m_GameObject: {fileID: 2132736215}
  m_Material: {fileID: 0}
  m_IsTrigger: 0
  m_Enabled: 1
  serializedVersion: 2
  m_Size: {x: 0.064015865, y: 2.6797569, z: 1.4415474}
  m_Center: {x: 0.00000023841858, y: 0, z: 0.7213371}
--- !u!65 &2132736219
BoxCollider:
  m_ObjectHideFlags: 0
  m_CorrespondingSourceObject: {fileID: 0}
  m_PrefabInstance: {fileID: 0}
  m_PrefabAsset: {fileID: 0}
  m_GameObject: {fileID: 2132736216}
  m_Material: {fileID: 0}
  m_IsTrigger: 0
  m_Enabled: 1
  serializedVersion: 2
  m_Size: {x: 0.064015865, y: 2.679757, z: 1.4415491}
  m_Center: {x: -0.00000023841858, y: 0.000000059604645, z: -0.72092783}
