%YAML 1.1
%TAG !u! tag:unity3d.com,2011:
--- !u!1001 &2040827126203057164
PrefabInstance:
  m_ObjectHideFlags: 0
  serializedVersion: 2
  m_Modification:
    m_TransformParent: {fileID: 0}
    m_Modifications:
    - target: {fileID: 1000010811274378, guid: 6857ff1d3761e21479727f3b27cc8f68, type: 3}
      propertyPath: m_Name
      value: Wooden box
      objectReference: {fileID: 0}
    - target: {fileID: 4000013149834228, guid: 6857ff1d3761e21479727f3b27cc8f68, type: 3}
      propertyPath: m_RootOrder
      value: 0
      objectReference: {fileID: 0}
    - target: {fileID: 4000013149834228, guid: 6857ff1d3761e21479727f3b27cc8f68, type: 3}
      propertyPath: m_LocalScale.x
      value: 1
      objectReference: {fileID: 0}
    - target: {fileID: 4000013149834228, guid: 6857ff1d3761e21479727f3b27cc8f68, type: 3}
      propertyPath: m_LocalScale.y
      value: 2
      objectReference: {fileID: 0}
    - target: {fileID: 4000013149834228, guid: 6857ff1d3761e21479727f3b27cc8f68, type: 3}
      propertyPath: m_LocalScale.z
      value: 1
      objectReference: {fileID: 0}
    - target: {fileID: 4000013149834228, guid: 6857ff1d3761e21479727f3b27cc8f68, type: 3}
      propertyPath: m_LocalPosition.x
      value: 3.2200012
      objectReference: {fileID: 0}
    - target: {fileID: 4000013149834228, guid: 6857ff1d3761e21479727f3b27cc8f68, type: 3}
      propertyPath: m_LocalPosition.y
      value: 40.97
      objectReference: {fileID: 0}
    - target: {fileID: 4000013149834228, guid: 6857ff1d3761e21479727f3b27cc8f68, type: 3}
      propertyPath: m_LocalPosition.z
      value: -3.3099976
      objectReference: {fileID: 0}
    - target: {fileID: 4000013149834228, guid: 6857ff1d3761e21479727f3b27cc8f68, type: 3}
      propertyPath: m_LocalRotation.w
      value: 1
      objectReference: {fileID: 0}
    - target: {fileID: 4000013149834228, guid: 6857ff1d3761e21479727f3b27cc8f68, type: 3}
      propertyPath: m_LocalRotation.x
      value: -0
      objectReference: {fileID: 0}
    - target: {fileID: 4000013149834228, guid: 6857ff1d3761e21479727f3b27cc8f68, type: 3}
      propertyPath: m_LocalRotation.y
      value: -0
      objectReference: {fileID: 0}
    - target: {fileID: 4000013149834228, guid: 6857ff1d3761e21479727f3b27cc8f68, type: 3}
      propertyPath: m_LocalRotation.z
      value: -0
      objectReference: {fileID: 0}
    - target: {fileID: 4000013149834228, guid: 6857ff1d3761e21479727f3b27cc8f68, type: 3}
      propertyPath: m_LocalEulerAnglesHint.x
      value: 0
      objectReference: {fileID: 0}
    - target: {fileID: 4000013149834228, guid: 6857ff1d3761e21479727f3b27cc8f68, type: 3}
      propertyPath: m_LocalEulerAnglesHint.y
      value: 0
      objectReference: {fileID: 0}
    - target: {fileID: 4000013149834228, guid: 6857ff1d3761e21479727f3b27cc8f68, type: 3}
      propertyPath: m_LocalEulerAnglesHint.z
      value: 0
      objectReference: {fileID: 0}
    m_RemovedComponents: []
  m_SourcePrefab: {fileID: 100100000, guid: 6857ff1d3761e21479727f3b27cc8f68, type: 3}
